[{"line":1,"elements":[{"line":3,"name":"","description":"","type":"background","keyword":"Background","steps":[{"name":"url 'https:\/\/reqres.in\/api\/users?page=2'","result":{"duration":5206028,"status":"passed"},"match":{"location":"karate","arguments":[]},"keyword":"*","line":5,"doc_string":{"content_type":"","value":"23:43:52.429 not a js function or feature file: read('classpath:karate-config.js') - [type: NULL, value: null]\n23:43:52.438 not a js function or feature file: read('classpath:karate-config.js') - [type: NULL, value: null]","line":5}},{"name":"method get","result":{"duration":1449965640,"status":"passed"},"match":{"location":"karate","arguments":[]},"keyword":"*","line":6}]},{"line":9,"name":"printing response body to console","description":"","id":"printing-response-body-to-console","type":"scenario","keyword":"Scenario","steps":[{"name":"print response","result":{"duration":1331482,"status":"passed"},"match":{"location":"karate","arguments":[]},"keyword":"*","line":10,"doc_string":{"content_type":"","value":"23:43:53.898 [print] {\n  \"page\": 2,\n  \"per_page\": 6,\n  \"total\": 12,\n  \"total_pages\": 2,\n  \"data\": [\n    {\n      \"id\": 7,\n      \"email\": \"michael.lawson@reqres.in\",\n      \"first_name\": \"Michael\",\n      \"last_name\": \"Lawson\",\n      \"avatar\": \"https:\/\/s3.amazonaws.com\/uifaces\/faces\/twitter\/follettkyle\/128.jpg\"\n    },\n    {\n      \"id\": 8,\n      \"email\": \"lindsay.ferguson@reqres.in\",\n      \"first_name\": \"Lindsay\",\n      \"last_name\": \"Ferguson\",\n      \"avatar\": \"https:\/\/s3.amazonaws.com\/uifaces\/faces\/twitter\/araa3185\/128.jpg\"\n    },\n    {\n      \"id\": 9,\n      \"email\": \"tobias.funke@reqres.in\",\n      \"first_name\": \"Tobias\",\n      \"last_name\": \"Funke\",\n      \"avatar\": \"https:\/\/s3.amazonaws.com\/uifaces\/faces\/twitter\/vivekprvr\/128.jpg\"\n    },\n    {\n      \"id\": 10,\n      \"email\": \"byron.fields@reqres.in\",\n      \"first_name\": \"Byron\",\n      \"last_name\": \"Fields\",\n      \"avatar\": \"https:\/\/s3.amazonaws.com\/uifaces\/faces\/twitter\/russoedu\/128.jpg\"\n    },\n    {\n      \"id\": 11,\n      \"email\": \"george.edwards@reqres.in\",\n      \"first_name\": \"George\",\n      \"last_name\": \"Edwards\",\n      \"avatar\": \"https:\/\/s3.amazonaws.com\/uifaces\/faces\/twitter\/mrmoiree\/128.jpg\"\n    },\n    {\n      \"id\": 12,\n      \"email\": \"rachel.howell@reqres.in\",\n      \"first_name\": \"Rachel\",\n      \"last_name\": \"Howell\",\n      \"avatar\": \"https:\/\/s3.amazonaws.com\/uifaces\/faces\/twitter\/hebertialmeida\/128.jpg\"\n    }\n  ],\n  \"ad\": {\n    \"company\": \"StatusCode Weekly\",\n    \"url\": \"http:\/\/statuscode.org\/\",\n    \"text\": \"A weekly newsletter focusing on software development, infrastructure, the server, performance, and the stack end of things.\"\n  }\n}","line":10}},{"name":"status 200","result":{"duration":18195,"status":"passed"},"match":{"location":"karate","arguments":[]},"keyword":"*","line":11}]},{"line":3,"name":"","description":"","type":"background","keyword":"Background","steps":[{"name":"url 'https:\/\/reqres.in\/api\/users?page=2'","result":{"duration":25371861,"status":"passed"},"match":{"location":"karate","arguments":[]},"keyword":"*","line":5},{"name":"method get","result":{"duration":1455945177,"status":"passed"},"match":{"location":"karate","arguments":[]},"keyword":"*","line":6}]},{"line":12,"name":"verifying response body is smaller than 999ms","description":"","id":"verifying-response-body-is-smaller-than-999ms","type":"scenario","keyword":"Scenario","steps":[{"name":"print responseTime","result":{"duration":632617,"status":"passed"},"match":{"location":"karate","arguments":[]},"keyword":"*","line":13,"doc_string":{"content_type":"","value":"23:43:53.913 [print] 955","line":13}},{"name":"assert responseTime < 999","result":{"duration":35189088,"status":"passed"},"match":{"location":"karate","arguments":[]},"keyword":"*","line":14}]},{"line":3,"name":"","description":"","type":"background","keyword":"Background","steps":[{"name":"url 'https:\/\/reqres.in\/api\/users?page=2'","result":{"duration":252860,"status":"passed"},"match":{"location":"karate","arguments":[]},"keyword":"*","line":5,"doc_string":{"content_type":"","value":"23:43:53.908 not a js function or feature file: read('classpath:karate-config.js') - [type: NULL, value: null]","line":5}},{"name":"method get","result":{"duration":690486532,"status":"passed"},"match":{"location":"karate","arguments":[]},"keyword":"*","line":6}]},{"line":16,"name":"getting 1st id  of data","description":"","id":"getting-1st-id--of-data","type":"scenario","keyword":"Scenario","steps":[{"name":"print response.data.id[1]","result":{"duration":44024265,"status":"passed"},"match":{"location":"karate","arguments":[]},"keyword":"*","line":17,"doc_string":{"content_type":"","value":"23:43:54.644 [print]","line":17}}]},{"line":3,"name":"","description":"","type":"background","keyword":"Background","steps":[{"name":"url 'https:\/\/reqres.in\/api\/users?page=2'","result":{"duration":208073,"status":"passed"},"match":{"location":"karate","arguments":[]},"keyword":"*","line":5,"doc_string":{"content_type":"","value":"23:43:54.654 not a js function or feature file: read('classpath:karate-config.js') - [type: NULL, value: null]","line":5}},{"name":"method get","result":{"duration":353705685,"status":"passed"},"match":{"location":"karate","arguments":[]},"keyword":"*","line":6}]},{"line":19,"name":"getting initial values from json body","description":"","id":"getting-initial-values-from-json-body","type":"scenario","keyword":"Scenario","steps":[{"name":"print 'page number is : ', response.page","result":{"duration":10430249,"status":"passed"},"match":{"location":"karate","arguments":[]},"keyword":"*","line":20,"doc_string":{"content_type":"","value":"23:43:55.018 [print] page number is :  2","line":20}}]}],"name":"examples\/users\/features\/UserGet1.feature","description":"reqres GET exercise number 1","id":"reqres-get-exercise-number-1","keyword":"Feature","uri":"examples\/users\/features\/UserGet1.feature"}]