[{"line":1,"elements":[{"line":4,"name":"","description":"","type":"background","keyword":"Background","steps":[{"name":"def expectedResponse = read ('..\/jsonFiles\/response.json')","result":{"duration":112824631,"status":"passed"},"match":{"location":"karate","arguments":[]},"keyword":"*","line":5,"doc_string":{"content_type":"","value":"23:43:52.441 not a js function or feature file: read('classpath:karate-config.js') - [type: NULL, value: null]","line":5}},{"name":"def feature = read('UserGet1.feature')","result":{"duration":13954430,"status":"passed"},"match":{"location":"karate","arguments":[]},"keyword":"*","line":6},{"name":"def result = call feature","result":{"duration":2471663097,"status":"passed"},"match":{"location":"karate","arguments":[]},"keyword":"*","line":7},{"name":"UserGet1.feature","result":{"duration":0,"status":"passed"},"match":{"location":"karate","arguments":[]},"keyword":"","line":7},{"name":"url 'https:\/\/reqres.in\/api\/users?page=2'","result":{"duration":257525,"status":"passed"},"match":{"location":"karate","arguments":[]},"keyword":"> *","line":5},{"name":"method get","result":{"duration":1304401213,"status":"passed"},"match":{"location":"karate","arguments":[]},"keyword":"> *","line":6},{"name":"print response","result":{"duration":8231953,"status":"passed"},"match":{"location":"karate","arguments":[]},"keyword":"> *","line":10,"doc_string":{"content_type":"","value":"23:43:53.937 [print] {\n  \"page\": 2,\n  \"per_page\": 6,\n  \"total\": 12,\n  \"total_pages\": 2,\n  \"data\": [\n    {\n      \"id\": 7,\n      \"email\": \"michael.lawson@reqres.in\",\n      \"first_name\": \"Michael\",\n      \"last_name\": \"Lawson\",\n      \"avatar\": \"https:\/\/s3.amazonaws.com\/uifaces\/faces\/twitter\/follettkyle\/128.jpg\"\n    },\n    {\n      \"id\": 8,\n      \"email\": \"lindsay.ferguson@reqres.in\",\n      \"first_name\": \"Lindsay\",\n      \"last_name\": \"Ferguson\",\n      \"avatar\": \"https:\/\/s3.amazonaws.com\/uifaces\/faces\/twitter\/araa3185\/128.jpg\"\n    },\n    {\n      \"id\": 9,\n      \"email\": \"tobias.funke@reqres.in\",\n      \"first_name\": \"Tobias\",\n      \"last_name\": \"Funke\",\n      \"avatar\": \"https:\/\/s3.amazonaws.com\/uifaces\/faces\/twitter\/vivekprvr\/128.jpg\"\n    },\n    {\n      \"id\": 10,\n      \"email\": \"byron.fields@reqres.in\",\n      \"first_name\": \"Byron\",\n      \"last_name\": \"Fields\",\n      \"avatar\": \"https:\/\/s3.amazonaws.com\/uifaces\/faces\/twitter\/russoedu\/128.jpg\"\n    },\n    {\n      \"id\": 11,\n      \"email\": \"george.edwards@reqres.in\",\n      \"first_name\": \"George\",\n      \"last_name\": \"Edwards\",\n      \"avatar\": \"https:\/\/s3.amazonaws.com\/uifaces\/faces\/twitter\/mrmoiree\/128.jpg\"\n    },\n    {\n      \"id\": 12,\n      \"email\": \"rachel.howell@reqres.in\",\n      \"first_name\": \"Rachel\",\n      \"last_name\": \"Howell\",\n      \"avatar\": \"https:\/\/s3.amazonaws.com\/uifaces\/faces\/twitter\/hebertialmeida\/128.jpg\"\n    }\n  ],\n  \"ad\": {\n    \"company\": \"StatusCode Weekly\",\n    \"url\": \"http:\/\/statuscode.org\/\",\n    \"text\": \"A weekly newsletter focusing on software development, infrastructure, the server, performance, and the stack end of things.\"\n  }\n}","line":10}},{"name":"status 200","result":{"duration":18661,"status":"passed"},"match":{"location":"karate","arguments":[]},"keyword":"> *","line":11},{"name":"url 'https:\/\/reqres.in\/api\/users?page=2'","result":{"duration":224402,"status":"passed"},"match":{"location":"karate","arguments":[]},"keyword":"> *","line":5},{"name":"method get","result":{"duration":350889699,"status":"passed"},"match":{"location":"karate","arguments":[]},"keyword":"> *","line":6},{"name":"print responseTime","result":{"duration":3415945,"status":"passed"},"match":{"location":"karate","arguments":[]},"keyword":"> *","line":13,"doc_string":{"content_type":"","value":"23:43:54.304 [print] 347","line":13}},{"name":"assert responseTime < 999","result":{"duration":1052029,"status":"passed"},"match":{"location":"karate","arguments":[]},"keyword":"> *","line":14},{"name":"url 'https:\/\/reqres.in\/api\/users?page=2'","result":{"duration":193144,"status":"passed"},"match":{"location":"karate","arguments":[]},"keyword":"> *","line":5},{"name":"method get","result":{"duration":427851570,"status":"passed"},"match":{"location":"karate","arguments":[]},"keyword":"> *","line":6},{"name":"print response.data.id[1]","result":{"duration":1860995,"status":"passed"},"match":{"location":"karate","arguments":[]},"keyword":"> *","line":17,"doc_string":{"content_type":"","value":"23:43:54.743 [print]","line":17}},{"name":"url 'https:\/\/reqres.in\/api\/users?page=2'","result":{"duration":130629,"status":"passed"},"match":{"location":"karate","arguments":[]},"keyword":"> *","line":5},{"name":"method get","result":{"duration":291705486,"status":"passed"},"match":{"location":"karate","arguments":[]},"keyword":"> *","line":6},{"name":"print 'page number is : ', response.page","result":{"duration":1675782,"status":"passed"},"match":{"location":"karate","arguments":[]},"keyword":"> *","line":20,"doc_string":{"content_type":"","value":"23:43:55.040 [print] page number is :  2","line":20}}]},{"line":9,"name":"request user 2 details","description":"","id":"request-user-2-details","type":"scenario","keyword":"Scenario","steps":[{"name":"url 'https:\/\/reqres.in\/api\/users\/2'","result":{"duration":555172,"status":"passed"},"match":{"location":"karate","arguments":[]},"keyword":"*","line":10},{"name":"method GET","result":{"duration":136275780,"status":"passed"},"match":{"location":"karate","arguments":[]},"keyword":"*","line":11},{"name":"status 200","result":{"duration":17261,"status":"passed"},"match":{"location":"karate","arguments":[]},"keyword":"*","line":12},{"name":"match response == expectedResponse","result":{"duration":226268,"status":"passed"},"match":{"location":"karate","arguments":[]},"keyword":"*","line":13},{"name":"print 'result ...... : ' , result","result":{"duration":15988975,"status":"passed"},"match":{"location":"karate","arguments":[]},"keyword":"*","line":14,"doc_string":{"content_type":"","value":"23:43:55.195 [print] result ...... :  {\n  \"__arg\": null,\n  \"expectedResponse\": {\n    \"data\": {\n      \"id\": 2,\n      \"email\": \"janet.weaver@reqres.in\",\n      \"first_name\": \"Janet\",\n      \"last_name\": \"Weaver\",\n      \"avatar\": \"https:\/\/s3.amazonaws.com\/uifaces\/faces\/twitter\/josephstein\/128.jpg\"\n    },\n    \"ad\": {\n      \"company\": \"StatusCode Weekly\",\n      \"url\": \"#ignore\",\n      \"text\": \"A weekly newsletter focusing on software development, infrastructure, the server, performance, and the stack end of things.\"\n    }\n  },\n  \"responseHeaders\": {\n    \"Date\": [\n      \"Sun, 10 May 2020 04:43:51 GMT\"\n    ],\n    \"Content-Type\": [\n      \"application\/json; charset=utf-8\"\n    ],\n    \"Transfer-Encoding\": [\n      \"chunked\"\n    ],\n    \"Connection\": [\n      \"keep-alive\"\n    ],\n    \"Set-Cookie\": [\n      \"__cfduid=de4ff2293b0cdbce5e4d4e4cc02a446a41589085831; expires=Tue, 09-Jun-20 04:43:51 GMT; path=\/; domain=.reqres.in; HttpOnly; SameSite=Lax; Secure\"\n    ],\n    \"X-Powered-By\": [\n      \"Express\"\n    ],\n    \"Access-Control-Allow-Origin\": [\n      \"*\"\n    ],\n    \"Etag\": [\n      \"W\/\\\"4dd-IPv5LdOOb6s5S9E3i59wBCJ1k\/0\\\"\"\n    ],\n    \"Via\": [\n      \"1.1 vegur\"\n    ],\n    \"Cache-Control\": [\n      \"max-age=14400\"\n    ],\n    \"CF-Cache-Status\": [\n      \"HIT\"\n    ],\n    \"Age\": [\n      \"371\"\n    ],\n    \"Expect-CT\": [\n      \"max-age=604800, report-uri=\\\"https:\/\/report-uri.cloudflare.com\/cdn-cgi\/beacon\/expect-ct\\\"\"\n    ],\n    \"Vary\": [\n      \"Accept-Encoding\"\n    ],\n    \"Server\": [\n      \"cloudflare\"\n    ],\n    \"CF-RAY\": [\n      \"59110070e93c0388-ORD\"\n    ],\n    \"cf-request-id\": [\n      \"029e7e9a95000003889c226200000001\"\n    ]\n  },\n  \"feature\": com.intuit.karate.core.Feature@2fdc02d6,\n  \"responseTime\": 289,\n  \"response\": {\n    \"page\": 2,\n    \"per_page\": 6,\n    \"total\": 12,\n    \"total_pages\": 2,\n    \"data\": [\n      {\n        \"id\": 7,\n        \"email\": \"michael.lawson@reqres.in\",\n        \"first_name\": \"Michael\",\n        \"last_name\": \"Lawson\",\n        \"avatar\": \"https:\/\/s3.amazonaws.com\/uifaces\/faces\/twitter\/follettkyle\/128.jpg\"\n      },\n      {\n        \"id\": 8,\n        \"email\": \"lindsay.ferguson@reqres.in\",\n        \"first_name\": \"Lindsay\",\n        \"last_name\": \"Ferguson\",\n        \"avatar\": \"https:\/\/s3.amazonaws.com\/uifaces\/faces\/twitter\/araa3185\/128.jpg\"\n      },\n      {\n        \"id\": 9,\n        \"email\": \"tobias.funke@reqres.in\",\n        \"first_name\": \"Tobias\",\n        \"last_name\": \"Funke\",\n        \"avatar\": \"https:\/\/s3.amazonaws.com\/uifaces\/faces\/twitter\/vivekprvr\/128.jpg\"\n      },\n      {\n        \"id\": 10,\n        \"email\": \"byron.fields@reqres.in\",\n        \"first_name\": \"Byron\",\n        \"last_name\": \"Fields\",\n        \"avatar\": \"https:\/\/s3.amazonaws.com\/uifaces\/faces\/twitter\/russoedu\/128.jpg\"\n      },\n      {\n        \"id\": 11,\n        \"email\": \"george.edwards@reqres.in\",\n        \"first_name\": \"George\",\n        \"last_name\": \"Edwards\",\n        \"avatar\": \"https:\/\/s3.amazonaws.com\/uifaces\/faces\/twitter\/mrmoiree\/128.jpg\"\n      },\n      {\n        \"id\": 12,\n        \"email\": \"rachel.howell@reqres.in\",\n        \"first_name\": \"Rachel\",\n        \"last_name\": \"Howell\",\n        \"avatar\": \"https:\/\/s3.amazonaws.com\/uifaces\/faces\/twitter\/hebertialmeida\/128.jpg\"\n      }\n    ],\n    \"ad\": {\n      \"company\": \"StatusCode Weekly\",\n      \"url\": \"http:\/\/statuscode.org\/\",\n      \"text\": \"A weekly newsletter focusing on software development, infrastructure, the server, performance, and the stack end of things.\"\n    }\n  },\n  \"requestTimeStamp\": 1589089434748,\n  \"responseStatus\": 200,\n  \"__loop\": -1,\n  \"responseCookies\": {\n    \"__cfduid\": {\n      \"name\": \"__cfduid\",\n      \"value\": \"de4ff2293b0cdbce5e4d4e4cc02a446a41589085831\",\n      \"domain\": \"reqres.in\",\n      \"path\": \"\/\",\n      \"expires\": \"1591677831000\",\n      \"persistent\": \"true\",\n      \"secure\": \"true\"\n    }\n  }\n}","line":14}},{"name":"def first_name = result.response.data.first_name","result":{"duration":11441224,"status":"passed"},"match":{"location":"karate","arguments":[]},"keyword":"*","line":15},{"name":"print 'firstname value : .... ' ,  first_name","result":{"duration":10067288,"status":"passed"},"match":{"location":"karate","arguments":[]},"keyword":"*","line":16,"doc_string":{"content_type":"","value":"23:43:55.217 [print] firstname value : ....","line":16}}]}],"name":"examples\/users\/features\/UserGet2CallingFeatureFile.feature","description":"trying to call feature file and validate","id":"trying-to-call-feature-file-and-validate","keyword":"Feature","uri":"examples\/users\/features\/UserGet2CallingFeatureFile.feature"}]